<?xml version="1.0" encoding="utf-8"?>
<!-- Generator: Adobe Illustrator 25.0.0, SVG Export Plug-In . SVG Version: 6.00 Build 0)  -->
<svg version="1.1" xmlns="http://www.w3.org/2000/svg" xmlns:xlink="http://www.w3.org/1999/xlink" x="0px" y="0px"
	 viewBox="0 0 100 100" style="enable-background:new 0 0 100 100;" xml:space="preserve">
<style type="text/css">
	.st0{fill:#FFFFFF;}
</style>
<g id="BACKGROUND">
</g>
<g id="OBJECTS">
	<g>
		<path class="st0" d="M39.5,49.5c5.8,3.7,12.8,4.1,19.4,1.1c1.4-0.6,2-2.3,1.4-3.7c-0.6-1.4-2.3-2-3.7-1.4c-4.8,2.2-9.9,2-14-0.7
			c-4-2.6-6.4-7-6.4-11.7c0-7.7,6.2-13.9,13.9-13.9c7.7,0,13.9,6.2,13.9,13.9c0,1.5-1.2,2.8-2.8,2.8c-1.4,0-2.7-1.1-2.8-2.7
			c0,0,0,0,0,0c0-4.6-3.7-8.3-8.3-8.3c-4.6,0-8.3,3.7-8.3,8.3s3.7,8.3,8.3,8.3c2.1,0,4.1-0.8,5.6-2.1c1.5,1.3,3.4,2.1,5.6,2.1
			c4.6,0,8.3-3.7,8.3-8.3c0-10.7-8.7-19.5-19.5-19.5c-10.7,0-19.5,8.7-19.5,19.5C30.5,39.8,33.9,45.9,39.5,49.5z M50,35.9
			c-1.5,0-2.8-1.2-2.8-2.8c0-1.5,1.2-2.8,2.8-2.8c1.4,0,2.6,1.1,2.8,2.5c0,0.3,0,0.5,0,0.8C52.5,34.9,51.4,35.9,50,35.9z"/>
		<path class="st0" d="M91.7,39c0-0.7-0.3-1.4-0.8-2L80.6,26.8V5.3c0-1.5-1.2-2.8-2.8-2.8H22.2c-1.5,0-2.8,1.2-2.8,2.8v21.5
			L9.1,37.1c0,0,0,0,0,0c-0.5,0.5-0.8,1.2-0.8,1.9c0,0,0,0,0,0v50.1c0,4.6,3.8,8.3,8.3,8.3h66.8c4.6,0,8.3-3.7,8.3-8.3L91.7,39
			C91.7,39.1,91.7,39.1,91.7,39z M85,39.1l-4.4,4.4v-8.8L85,39.1z M75,8.1v19.9c0,0,0,0,0,0V49L60,64.1H40L25,49V27.9c0,0,0,0,0,0
			V8.1H75z M19.4,43.5L15,39.1l4.4-4.4V43.5z M13.8,88V45.8l21.1,21.1L13.8,88z M17.8,91.9L40,69.7h20l22.3,22.3H17.8z M86.2,88
			L65.1,66.9l21.1-21.1V88z"/>
	</g>
</g>
</svg>
